{
  "kind": "youtube#video",
  "etag": "NJXcYQ1nFWKz5y9vGfvf0sJwoZI",
  "id": "youtube-video-id-2",
  "snippet": {
    "publishedAt": "2020-10-12T10:32:03Z",
    "channelId": "Channel-07-two_uploaded_videos",
    "title": "Hodor Ipsum",
    "description": "Hodor. Hodor hodor, hodor. Hodor hodor hodor hodor hodor. Hodor. Hodor! Hodor hodor, hodor; hodor hodor hodor. Hodor. Hodor hodor; hodor hodor - hodor, hodor, hodor hodor. Hodor, hodor. Hodor. Hodor, hodor hodor hodor; hodor hodor; hodor hodor hodor! Hodor hodor HODOR! Hodor hodor... Hodor hodor hodor...",
    "thumbnails": {
      "default": {
        "url": "https://i.ytimg.com/vi/youtube-video-id-2/default.jpg",
        "width": 120,
        "height": 90
      },
      "medium": {
        "url": "https://i.ytimg.com/vi/youtube-video-id-2/mqdefault.jpg",
        "width": 320,
        "height": 180
      },
      "high": {
        "url": "https://i.ytimg.com/vi/youtube-video-id-2/hqdefault.jpg",
        "width": 480,
        "height": 360
      },
      "standard": {
        "url": "https://i.ytimg.com/vi/youtube-video-id-2/sddefault.jpg",
        "width": 640,
        "height": 480
      },
      "maxres": {
        "url": "https://i.ytimg.com/vi/youtube-video-id-2/maxresdefault.jpg",
        "width": 1280,
        "height": 720
      }
    },
    "channelTitle": "Channel-07",
    "type": "upload"
  },
  "contentDetails": {
    "duration": "PT29M35S",
    "dimension": "2d",
    "definition": "hd",
    "caption": "false",
    "licensedContent": true,
    "contentRating": {},
    "projection": "rectangular"
  }
}