{
  "kind": "youtube#video",
  "etag": "nwFVBloyNnWrDoeZUpfJXTdnzQY",
  "id": "youtube-video-id-7",
  "snippet": {
    "publishedAt": "2020-10-12T16:00:13Z",
    "channelId": "Channel-11-two_uploaded_videos-two_users_subscriptions-one_playlist",
    "title": "Cupcake Ipsum",
    "description": "Cupcake ipsum dolor. Sit amet marshmallow topping cheesecake muffin. Halvah croissant candy canes bonbon candy. Apple pie jelly beans topping carrot cake danish tart cake cheesecake. Muffin danish chocolate soufflé pastry icing bonbon oat cake. Powder cake jujubes oat cake. Lemon drops tootsie roll marshmallow halvah carrot cake.",
    "thumbnails": {
      "default": {
        "url": "https://i.ytimg.com/vi/youtube-video-id-7/default.jpg",
        "width": 120,
        "height": 90
      },
      "medium": {
        "url": "https://i.ytimg.com/vi/youtube-video-id-7/mqdefault.jpg",
        "width": 320,
        "height": 180
      },
      "high": {
        "url": "https://i.ytimg.com/vi/youtube-video-id-7/hqdefault.jpg",
        "width": 480,
        "height": 360
      },
      "standard": {
        "url": "https://i.ytimg.com/vi/youtube-video-id-7/sddefault.jpg",
        "width": 640,
        "height": 480
      }
    },
    "channelTitle": "Channel-11",
    "type": "upload"
  },
  "contentDetails": {
    "duration": "PT17M40S",
    "dimension": "2d",
    "definition": "hd",
    "caption": "false",
    "licensedContent": false,
    "contentRating": {},
    "projection": "rectangular"
  }
}