{
  "kind": "youtube#video",
  "etag": "nwFVBloyNnWrDoeZUpfJXTdnzQY",
  "id": "youtube-video-id-9",
  "snippet": {
    "publishedAt": "2020-10-15T14:00:07Z",
    "channelId": "Channel-15-two_uploaded_videos",
    "title": "Space Ipsum",
    "description": "Space, the final frontier. These are the voyages of the Starship Enterprise. Its five-year mission: to explore strange new worlds, to seek out new life and new civilizations, to boldly go where no man has gone before. Many say exploration is part of our destiny, but it’s actually our duty to future generations and their quest to ensure the survival of the human species.",
    "thumbnails": {
      "default": {
        "url": "https://i.ytimg.com/vi/youtube-video-id-9/default.jpg",
        "width": 120,
        "height": 90
      },
      "medium": {
        "url": "https://i.ytimg.com/vi/youtube-video-id-9/mqdefault.jpg",
        "width": 320,
        "height": 180
      },
      "high": {
        "url": "https://i.ytimg.com/vi/youtube-video-id-9/hqdefault.jpg",
        "width": 480,
        "height": 360
      },
      "standard": {
        "url": "https://i.ytimg.com/vi/youtube-video-id-9/sddefault.jpg",
        "width": 640,
        "height": 480
      },
      "maxres": {
        "url": "https://i.ytimg.com/vi/youtube-video-id-9/maxresdefault.jpg",
        "width": 1280,
        "height": 720
      }
    },
    "channelTitle": "Channel-15",
    "type": "upload"
  },
  "contentDetails": {
    "duration": "PT59M00S",
    "dimension": "2d",
    "definition": "hd",
    "caption": "false",
    "licensedContent": false,
    "contentRating": {},
    "projection": "rectangular"
  }
}