{
  "kind": "youtube#video",
  "etag": "yp-IusuSsbx1RSwW0TSnYyXEkmE",
  "id": "youtube-video-id-4",
  "snippet": {
    "publishedAt": "2020-10-14T19:29:50Z",
    "channelId": "Channel-10-three_uploaded_videos-one_user_subscription",
    "title": "Hipster Ipsum",
    "description": "Lorem ipsum dolor amet mustache knausgaard +1, blue bottle waistcoat tbh semiotics artisan synth stumptown gastropub cornhole celiac swag. Brunch raclette vexillologist post-ironic glossier ennui XOXO mlkshk godard pour-over blog tumblr humblebrag. Blue bottle put a bird on it twee prism biodiesel brooklyn. Blue bottle ennui tbh succulents",
    "thumbnails": {
      "default": {
        "url": "https://i.ytimg.com/vi/youtube-video-id-4/default.jpg",
        "width": 120,
        "height": 90
      },
      "medium": {
        "url": "https://i.ytimg.com/vi/youtube-video-id-4/mqdefault.jpg",
        "width": 320,
        "height": 180
      },
      "high": {
        "url": "https://i.ytimg.com/vi/youtube-video-id-4/hqdefault.jpg",
        "width": 480,
        "height": 360
      },
      "standard": {
        "url": "https://i.ytimg.com/vi/youtube-video-id-4/sddefault.jpg",
        "width": 640,
        "height": 480
      },
      "maxres": {
        "url": "https://i.ytimg.com/vi/youtube-video-id-4/maxresdefault.jpg",
        "width": 1280,
        "height": 720
      }
    },
    "channelTitle": "Channel-10",
    "type": "upload"
  },
  "contentDetails": {
    "duration": "PT16M58S",
    "dimension": "2d",
    "definition": "hd",
    "caption": "true",
    "licensedContent": true,
    "contentRating": {},
    "projection": "rectangular"
  }
}