{
  "kind": "youtube#video",
  "etag": "nwFVBloyNnWrDoeZUpfJXTdnzQY",
  "id": "youtube-video-id-8",
  "snippet": {
    "publishedAt": "2020-10-05T16:00:12Z",
    "channelId": "Channel-11-two_uploaded_videos-two_users_subscriptions-one_playlist",
    "title": "Delorean Ipsum",
    "description": "Just say anything, George, say what ever\\'s natural, the first thing that comes to your mind. Take that you mutated son-of-a-bitch. My pine, why you. You space bastard, you killed a pine. You do? Yeah, it\\'s 8:00. Hey, McFly, I thought I told you never to come in here. Well it\\'s gonna cost you. How much money you got on you?",
    "thumbnails": {
      "default": {
        "url": "https://i.ytimg.com/vi/youtube-video-id-8/default.jpg",
        "width": 120,
        "height": 90
      },
      "medium": {
        "url": "https://i.ytimg.com/vi/youtube-video-id-8/mqdefault.jpg",
        "width": 320,
        "height": 180
      },
      "high": {
        "url": "https://i.ytimg.com/vi/youtube-video-id-8/hqdefault.jpg",
        "width": 480,
        "height": 360
      },
      "standard": {
        "url": "https://i.ytimg.com/vi/youtube-video-id-8/sddefault.jpg",
        "width": 640,
        "height": 480
      }
    },
    "channelTitle": "Channel-11",
    "type": "upload",
    "groupId": "MTUxNjAxOTEzNjEyNjc3NzUzNjAwMDc2OTY="
  },
  "contentDetails": {
    "duration": "PT18H59M59S",
    "dimension": "2d",
    "definition": "hd",
    "caption": "false",
    "licensedContent": false,
    "contentRating": {},
    "projection": "rectangular"
  }
}