{
  "kind": "youtube#activityListResponse",
  "etag": "QWnJbIxNf6J53I0GzdOQG1QavGo",
  "items": [
    {
      "kind": "youtube#activity",
      "etag": "Y0r8jhuzhR23ZxHLT-9vzUDVPzE",
      "id": "MTUxNjAyNzAzNzkwNDMyODk4MzU1ODg5NDQ=",
      "contentDetails": {
        "upload": {
          "videoId": "youtube-video-id-4"
        }
      }
    },
    {
      "kind": "youtube#activity",
      "etag": "n76irDz6QdnFmb3-lFpcxinyKWg",
      "id": "MTMxNjAyNjc5ODkwNDMyODk4MzU1ODg2MjQ=",
      "contentDetails": {
        "subscription": {
          "resourceId": {
            "kind": "youtube#channel",
            "channelId": "Subscription-channel-id-2"
          }
        }
      }
    },
    {
      "kind": "youtube#activity",
      "etag": "lPDiYluMjTgBmLgZF9RxjSePyJI",
      "id": "MTUxNjAyMTg3MTM2NDMyODk4MzU1ODc0NzI=",
      "contentDetails": {
        "upload": {
          "videoId": "youtube-video-id-5"
        }
      }
    },
    {
      "kind": "youtube#activity",
      "etag": "wI4O5rGhDQBnbTMVkZoqlAiyTIo",
      "id": "MTUxNjAxODIxNTIwNDMyODk4MzU1ODkyMDA=",
      "contentDetails": {
        "upload": {
          "videoId": "youtube-video-id-6"
        }
      }
    }
  ],
  "pageInfo": {
    "totalResults": 4,
    "resultsPerPage": 5
  }
}